…
## Value

A tibble.

## Examples

``` r
temp_max_data |>
  # Identify month
  dplyr::mutate(month = lubridate::month(date)) |>
  # Group by id variable and month
  dplyr::group_by(code_muni, month) |>
  summarise_normal(date_var = date, value_var = value, year_start = 1961, year_end = 1990) |>
  dplyr::ungroup()
#> # A tibble: 48 × 5
#>    code_muni month normal_mean normal_p10 normal_p90
#>        <int> <dbl>       <dbl>      <dbl>      <dbl>
#>  1   3106200     1        27.9       24.0       31.2
#>  2   3106200     2        28.5       25.5       30.9
#>  3   3106200     3        28.3       25.4       30.9
#>  4   3106200     4        27.2       24.6       29.6
#>  5   3106200     5        25.8       22.8       28.3
#>  6   3106200     6        24.7       21.9       27.3
#>  7   3106200     7        24.4       20.9       27.2
#>  8   3106200     8        26.1       22.2       29.8
#>  9   3106200     9        27.1       22.6       31.1
#> 10   3106200    10        27.5       23.0       31.5
#> # ℹ 38 more rows
```
