Compute maximum temperature indicators from grouped data — summarise_temp_max • climindi
…
# Compute indicators
temp_max_data |>
 # Identify year
 dplyr::mutate(year = lubridate::year(date)) |>
 # Identify month
 dplyr::mutate(month = lubridate::month(date)) |>
 # Group by id variable, year and month
 dplyr::group_by(code_muni, year, month) |>
 # Compute maximum temperature indicators
 summarise_temp_max(value_var = value, normals_df = normals) |>
 # Ungroup
 dplyr::ungroup()
#> # A tibble: 1,440 × 22
#>    code_muni  year month count normal  mean median    sd    se   max   min   p10
#>        <int> <dbl> <dbl> <int>  <dbl> <dbl>  <dbl> <dbl> <dbl> <dbl> <dbl> <dbl>
#>  1   3106200  1961     1    31   25.9  25.9   26.1  2.59 0.465  31.2  20.7  22.5
#>  2   3106200  1961     2    28   28.2  28.2   28.7  2.61 0.493  31.8  20.0  25.0
#>  3   3106200  1961     3    31   28.3  28.3   28.9  2.02 0.364  31.2  22.8  25.6
#>  4   3106200  1961     4    30   28.1  28.1   28.1  1.33 0.243  30.1  25.0  26.5
#>  5   3106200  1961     5    31   25.5  25.5   25.5  1.75 0.314  28.6  21.4  24.1
#>  6   3106200  1961     6    30   24.8  24.8   24.9  1.96 0.357  27.8  20.6  22.2
#>  7   3106200  1961     7    31   25.2  25.2   25.1  1.58 0.284  28.1  22.2  23.0
#>  8   3106200  1961     8    31   27.8  27.8   27.7  1.94 0.348  31.7  24.1  25.1
#>  9   3106200  1961     9    30   31.8  31.8   32.7  2.31 0.422  34.6  26.2  28.2
#> 10   3106200  1961    10    31   28.4  28.4   29.3  2.73 0.491  31.9  19.7  25.2
#> # ℹ 1,430 more rows
#> # ℹ 10 more variables: p25 <dbl>, p75 <dbl>, p90 <dbl>, heat_waves_3d <int>,
#> #   heat_waves_5d <int>, hot_days <int>, t_25 <int>, t_30 <int>, t_35 <int>,
#> #   t_40 <int>
…
